VotingMachine/votingMachine_tb.vcd
$date
	Thu Oct 27 13:00:20 2022
$end
$version
	Icarus Verilog
$end
$timescale
	1ms
$end
$scope module votingMachine_tb $end
$var wire 10 ! result [9:0] $end
$var wire 1 " wr_en $end
$var wire 1 # selD $end
$var wire 1 $ sel $end
$var wire 1 % resetRam $end
$var wire 1 & resetPIPO1 $end
$var wire 1 ' resetMultibrator $end
$var wire 1 ( pulse $end
$var wire 1 ) load1 $end
$var wire 1 * count_in $end
$var reg 1 + clk $end
$var reg 16 , encoder_in [15:0] $end
$var reg 2 - mode [1:0] $end
$var reg 1 . start $end
$var integer 32 / i [31:0] $end
$scope module i222 $end
$var wire 1 + clk $end
$var wire 16 0 encoder_in [15:0] $end
$var wire 2 1 mode [1:0] $end
$var wire 10 2 result [9:0] $end
$var wire 1 . start $end
$var wire 1 3 wr_en $end
$var wire 1 4 selD $end
$var wire 1 5 sel $end
$var wire 1 6 resetRam $end
$var wire 1 7 resetPIPO1 $end
$var wire 1 8 resetMultibrator $end
$var wire 1 9 pulse $end
$var wire 1 : load1 $end
$var wire 1 ; count_in $end
$scope module idatapath $end
$var wire 5 < b [4:0] $end
$var wire 1 + clk $end
$var wire 16 = encoder_in [15:0] $end
$var wire 10 > result [9:0] $end
$var wire 10 ? y [9:0] $end
$var wire 10 @ x [9:0] $end
$var wire 1 3 wr_en $end
$var wire 1 A trigger $end
$var wire 1 4 selD $end
$var wire 1 5 sel $end
$var wire 1 6 resetRam $end
$var wire 1 7 resetPIPO1 $end
$var wire 1 8 resetMultibrator $end
$var wire 1 9 pulse $end
$var wire 4 B pipo1_in [3:0] $end
$var wire 1 : load1 $end
$var wire 10 C demux_in [9:0] $end
$var wire 10 D data_in [9:0] $end
$var wire 1 ; count_in $end
$var wire 5 E addr [4:0] $end
$var wire 10 F adder_in [9:0] $end
$var wire 4 G a [3:0] $end
$scope module iPIPO1 $end
$var wire 1 + clk $end
$var wire 1 7 resetPIPO1 $end
$var wire 4 H pipo1_in [3:0] $end
$var wire 1 : load1 $end
$var reg 4 I pipo1_out [3:0] $end
$upscope $end
$scope module iadder $end
$var wire 10 J adder_in [9:0] $end
$var reg 10 K adder_out [9:0] $end
$upscope $end
$scope module icounter $end
$var wire 1 + clk $end
$var wire 1 6 resetRam $end
$var wire 1 ; count_in $end
$var reg 10 L count_out [9:0] $end
$upscope $end
$scope module idemux $end
$var wire 1 4 selD $end
$var wire 10 M demux_in [9:0] $end
$var reg 10 N out1 [9:0] $end
$var reg 10 O out2 [9:0] $end
$upscope $end
$scope module iencoder16to4 $end
$var wire 16 P encoder_in [15:0] $end
$var reg 4 Q encoder_out [3:0] $end
$var reg 1 A valid $end
$upscope $end
$scope module imonostable $end
$var wire 1 + clk $end
$var wire 1 A trigger $end
$var wire 1 8 resetMultibrator $end
$var reg 5 R count [4:0] $end
$var reg 1 9 pulse $end
$upscope $end
$scope module imux1 $end
$var wire 4 S a [3:0] $end
$var wire 5 T b [4:0] $end
$var wire 1 5 sel $end
$var reg 5 U mux1_out [4:0] $end
$upscope $end
$scope module imux2 $end
$var wire 10 V x [9:0] $end
$var wire 10 W y [9:0] $end
$var wire 1 5 sel $end
$var reg 10 X mux2_out [9:0] $end
$upscope $end
$scope module iram $end
$var wire 5 Y addr [4:0] $end
$var wire 1 + clk $end
$var wire 10 Z data_in [9:0] $end
$var wire 10 [ data_out [9:0] $end
$var wire 1 3 wr_en $end
$var wire 1 6 resetRam $end
$scope begin $ivl_for_loop0 $end
$var integer 32 \ i [31:0] $end
$upscope $end
$upscope $end
$upscope $end
$scope module ifsm $end
$var wire 1 + clk $end
$var wire 16 ] encoder_in [15:0] $end
$var wire 2 ^ mode [1:0] $end
$var wire 1 9 pulse $end
$var wire 1 . start $end
$var reg 1 ; count_in $end
$var reg 1 : load1 $end
$var reg 3 _ next_state [2:0] $end
$var reg 3 ` present_state [2:0] $end
$var reg 1 8 resetMultibrator $end
$var reg 1 7 resetPIPO1 $end
$var reg 1 6 resetRam $end
$var reg 1 5 sel $end
$var reg 1 4 selD $end
$var reg 1 3 wr_en $end
$upscope $end
$upscope $end
$scope module idatapath $end
$var wire 5 a b [4:0] $end
$var wire 1 + clk $end
$var wire 16 b encoder_in [15:0] $end
$var wire 10 c result [9:0] $end
$var wire 10 d y [9:0] $end
$var wire 10 e x [9:0] $end
$var wire 1 " wr_en $end
$var wire 1 f trigger $end
$var wire 1 # selD $end
$var wire 1 $ sel $end
$var wire 1 % resetRam $end
$var wire 1 & resetPIPO1 $end
$var wire 1 ' resetMultibrator $end
$var wire 1 ( pulse $end
$var wire 4 g pipo1_in [3:0] $end
$var wire 1 ) load1 $end
$var wire 10 h demux_in [9:0] $end
$var wire 10 i data_in [9:0] $end
$var wire 1 * count_in $end
$var wire 5 j addr [4:0] $end
$var wire 10 k adder_in [9:0] $end
$var wire 4 l a [3:0] $end
$scope module iPIPO1 $end
$var wire 1 + clk $end
$var wire 1 & resetPIPO1 $end
$var wire 4 m pipo1_in [3:0] $end
$var wire 1 ) load1 $end
$var reg 4 n pipo1_out [3:0] $end
$upscope $end
$scope module iadder $end
$var wire 10 o adder_in [9:0] $end
$var reg 10 p adder_out [9:0] $end
$upscope $end
$scope module icounter $end
$var wire 1 + clk $end
$var wire 1 % resetRam $end
$var wire 1 * count_in $end
$var reg 10 q count_out [9:0] $end
$upscope $end
$scope module idemux $end
$var wire 1 # selD $end
$var wire 10 r demux_in [9:0] $end
$var reg 10 s out1 [9:0] $end
$var reg 10 t out2 [9:0] $end
$upscope $end
$scope module iencoder16to4 $end
$var wire 16 u encoder_in [15:0] $end
$var reg 4 v encoder_out [3:0] $end
$var reg 1 f valid $end
$upscope $end
$scope module imonostable $end
$var wire 1 + clk $end
$var wire 1 f trigger $end
$var wire 1 ' resetMultibrator $end
$var reg 5 w count [4:0] $end
$var reg 1 ( pulse $end
$upscope $end
$scope module imux1 $end
$var wire 4 x a [3:0] $end
$var wire 5 y b [4:0] $end
$var wire 1 $ sel $end
$var reg 5 z mux1_out [4:0] $end
$upscope $end
$scope module imux2 $end
$var wire 10 { x [9:0] $end
$var wire 10 | y [9:0] $end
$var wire 1 $ sel $end
$var reg 10 } mux2_out [9:0] $end
$upscope $end
$scope module iram $end
$var wire 5 ~ addr [4:0] $end
$var wire 1 + clk $end
$var wire 10 !" data_in [9:0] $end
$var wire 10 "" data_out [9:0] $end
$var wire 1 " wr_en $end
$var wire 1 % resetRam $end
$scope begin $ivl_for_loop0 $end
$var integer 32 #" i [31:0] $end
$upscope $end
$upscope $end
$upscope $end
$scope module ifsm $end
$var wire 1 + clk $end
$var wire 16 $" encoder_in [15:0] $end
$var wire 2 %" mode [1:0] $end
$var wire 1 ( pulse $end
$var wire 1 . start $end
$var reg 1 * count_in $end
$var reg 1 ) load1 $end
$var reg 3 &" next_state [2:0] $end
$var reg 3 '" present_state [2:0] $end
$var reg 1 ' resetMultibrator $end
$var reg 1 & resetPIPO1 $end
$var reg 1 % resetRam $end
$var reg 1 $ sel $end
$var reg 1 # selD $end
$var reg 1 " wr_en $end
$upscope $end
$upscope $end
$enddefinitions $end
#0
$dumpvars
b0 '"
b0 &"
b0 %"
b0 $"
bx #"
bx ""
bx !"
bx ~
bx }
bx |
bx {
bx z
bz y
bx x
b0 w
b0 v
b0 u
bx t
bx s
bx r
bx q
bx p
bx o
bx n
b0 m
bx l
bx k
bx j
bx i
bx h
b0 g
0f
bx e
bx d
bx c
b0 b
bz a
b0 `
b0 _
b0 ^
b0 ]
bx \
bx [
bx Z
bx Y
bx X
bx W
bx V
bx U
bz T
bx S
b0 R
b0 Q
b0 P
bx O
bx N
bx M
bx L
bx K
bx J
bx I
b0 H
bx G
bx F
bx E
bx D
bx C
b0 B
0A
bx @
bx ?
bx >
b0 =
bz <
x;
x:
09
x8
x7
x6
x5
x4
x3
bx 2
b0 1
b0 0
bx /
0.
b0 -
b0 ,
0+
x*
x)
0(
x'
x&
x%
x$
x#
x"
bx !
$end
#5
1+
#10
0+
#15
1+
#20
0+
#25
1+
#30
b1 _
07
0;
0:
06
18
b1 &"
0&
0*
0)
0%
1'
0+
1.
#35
b0 _
16
b0 &"
1%
b1 `
b1 '"
1+
#40
0+
#45
0%
b0 i
b0 }
b0 !"
06
b0 D
b0 X
b0 Z
b0 '"
b0 d
b0 q
b0 |
b0 `
b0 ?
b0 L
b0 W
b100000 \
b100000 #"
1+
0.
#50
0+
#55
1+
#60
0+
b1 -
b1 1
b1 ^
b1 %"
#65
1+
#70
1A
1f
b10 _
b10 &"
0+
b1 ,
b1 0
b1 =
b1 P
b1 ]
b1 b
b1 u
b1 $"
1.
b1 /
#75
b11 _
1;
1:
08
b11 &"
1*
1)
0'
b10 `
b10 '"
1+
#80
0+
#85
b1 @
b1 K
b1 V
b1 e
b1 p
b1 {
b0 F
b0 J
b0 N
b0 k
b0 o
b0 s
b0 h
b0 r
b0 ""
b0 j
b0 z
b0 ~
b1 i
b1 }
b1 !"
b0 C
b0 M
b0 [
b0 E
b0 U
b0 Y
b1 D
b1 X
b1 Z
b100 _
0;
0:
04
03
05
b100 &"
0*
0)
0#
0"
0$
b11 '"
b0 l
b0 n
b0 x
b1 d
b1 q
b1 |
b11 `
b0 G
b0 I
b0 S
b1 ?
b1 L
b1 W
19
1(
1+
#90
0A
0f
0+
b0 ,
b0 0
b0 =
b0 P
b0 ]
b0 b
b0 u
b0 $"
0.
#95
b110 _
13
b110 &"
1"
b100 `
b100 '"
b1 R
b1 w
1+
#100
0+
#105
b1 @
b1 K
b1 V
b1 e
b1 p
b1 {
b10000 j
b10000 z
b10000 ~
b10000 E
b10000 U
b10000 Y
b0 F
b0 J
b0 N
b0 k
b0 o
b0 s
b111 &"
0"
1$
b111 _
03
15
b0 C
b0 M
b0 [
b0 h
b0 r
b0 ""
b110 '"
b110 `
b10 R
b10 w
1+
#110
0+
#115
b101 _
13
b101 &"
1"
b111 `
b111 '"
b11 R
b11 w
1+
#120
0+
#125
b1 !
b1 2
b1 >
b1 c
b1 O
b1 t
1#
0"
14
03
b1 C
b1 M
b1 [
b1 h
b1 r
b1 ""
b101 '"
b101 `
b100 R
b100 w
1+
#130
0+
#135
b101 R
b101 w
1+
#140
0+
#145
b110 R
b110 w
1+
#150
0+
#155
b111 R
b111 w
1+
#160
0+
#165
b1000 R
b1000 w
1+
#170
0+
#175
b1001 R
b1001 w
1+
#180
0+
#185
b0 _
b0 &"
b1010 R
09
b1010 w
0(
1+
#190
0+
#195
b0 R
b0 w
18
1'
b0 `
b0 '"
1+
#200
1A
1f
b10 _
b10 &"
0+
b1 ,
b1 0
b1 =
b1 P
b1 ]
b1 b
b1 u
b1 $"
1.
b10 /
#205
b11 &"
1*
1)
0'
b11 _
1;
1:
08
b10 '"
b10 `
1+
#210
0+
#215
b10 D
b10 X
b10 Z
b10 i
b10 }
b10 !"
b10 @
b10 K
b10 V
b10 e
b10 p
b10 {
b1 F
b1 J
b1 N
b0 E
b0 U
b0 Y
b1 k
b1 o
b1 s
b0 j
b0 z
b0 ~
b100 _
0;
0:
04
05
b100 &"
0*
0)
0#
0$
b10 ?
b10 L
b10 W
b11 `
b10 d
b10 q
b10 |
b11 '"
19
1(
1+
#220
0A
0f
0+
b0 ,
b0 0
b0 =
b0 P
b0 ]
b0 b
b0 u
b0 $"
0.
#225
b110 &"
1"
b110 _
13
b100 '"
b100 `
b1 R
b1 w
1+
#230
0+
#235
b10000 E
b10000 U
b10000 Y
b10000 j
b10000 z
b10000 ~
b10 e
b10 p
b10 {
b10 @
b10 K
b10 V
b111 _
03
15
b111 &"
0"
1$
b1 k
b1 o
b1 s
b1 F
b1 J
b1 N
b110 `
b110 '"
b1 h
b1 r
b1 ""
b1 C
b1 M
b1 [
b10 R
b10 w
1+
#240
0+
#245
b101 &"
1"
b101 _
13
b111 '"
b111 `
b11 R
b11 w
1+
#250
0+
#255
b10 O
b10 !
b10 2
b10 >
b10 c
b10 t
b11 e
b11 p
b11 {
b11 @
b11 K
b11 V
14
03
1#
0"
b10 k
b10 o
b10 s
b10 F
b10 J
b10 N
b101 `
b101 '"
b10 h
b10 r
b10 ""
b10 C
b10 M
b10 [
b100 R
b100 w
1+
#260
0+
#265
b101 R
b101 w
1+
#270
0+
#275
b110 R
b110 w
1+
#280
0+
#285
b111 R
b111 w
1+
#290
0+
#295
b1000 R
b1000 w
1+
#300
0+
#305
b1001 R
b1001 w
1+
#310
0+
#315
b0 _
b0 &"
b1010 R
09
b1010 w
0(
1+
#320
0+
#325
b0 w
b0 R
1'
18
b0 '"
b0 `
1+
#330
1A
1f
b10 _
b10 &"
0+
b1 ,
b1 0
b1 =
b1 P
b1 ]
b1 b
b1 u
b1 $"
1.
b11 /
#335
b11 _
1;
1:
08
b11 &"
1*
1)
0'
b10 `
b10 '"
1+
#340
0+
#345
b0 E
b0 U
b0 Y
b0 j
b0 z
b0 ~
b11 i
b11 }
b11 !"
b11 D
b11 X
b11 Z
b100 _
0;
0:
04
05
b100 &"
0*
0)
0#
0$
b11 '"
b11 d
b11 q
b11 |
b11 `
b11 ?
b11 L
b11 W
19
1(
1+
#350
0A
0f
0+
b0 ,
b0 0
b0 =
b0 P
b0 ]
b0 b
b0 u
b0 $"
0.
#355
b110 _
13
b110 &"
1"
b100 `
b100 '"
b1 R
b1 w
1+
#360
0+
#365
b11 @
b11 K
b11 V
b11 e
b11 p
b11 {
b10000 j
b10000 z
b10000 ~
b10000 E
b10000 U
b10000 Y
b10 F
b10 J
b10 N
b10 k
b10 o
b10 s
b111 &"
0"
1$
b111 _
03
15
b10 C
b10 M
b10 [
b10 h
b10 r
b10 ""
b110 '"
b110 `
b10 R
b10 w
1+
#370
0+
#375
b101 _
13
b101 &"
1"
b111 `
b111 '"
b11 R
b11 w
1+
#380
0+
#385
b11 O
b11 !
b11 2
b11 >
b11 c
b11 t
1#
0"
14
03
b11 C
b11 M
b11 [
b11 h
b11 r
b11 ""
b101 '"
b101 `
b100 R
b100 w
1+
#390
0+
#395
b101 R
b101 w
1+
#400
0+
#405
b110 R
b110 w
1+
#410
0+
#415
b111 R
b111 w
1+
#420
0+
#425
b1000 R
b1000 w
1+
#430
0+
#435
b1001 R
b1001 w
1+
#440
0+
#445
b0 _
b0 &"
b1010 R
09
b1010 w
0(
1+
#450
0+
#455
b0 R
b0 w
18
1'
b0 `
b0 '"
1+
#460
1A
1f
b10 _
b10 &"
0+
b1 ,
b1 0
b1 =
b1 P
b1 ]
b1 b
b1 u
b1 $"
1.
b100 /
#465
b11 &"
1*
1)
0'
b11 _
1;
1:
08
b10 '"
b10 `
1+
#470
0+
#475
b100 D
b100 X
b100 Z
b100 i
b100 }
b100 !"
b100 @
b100 K
b100 V
b100 e
b100 p
b100 {
b11 F
b11 J
b11 N
b0 E
b0 U
b0 Y
b11 k
b11 o
b11 s
b0 j
b0 z
b0 ~
b100 _
0;
0:
04
05
b100 &"
0*
0)
0#
0$
b100 ?
b100 L
b100 W
b11 `
b100 d
b100 q
b100 |
b11 '"
19
1(
1+
#480
0A
0f
0+
b0 ,
b0 0
b0 =
b0 P
b0 ]
b0 b
b0 u
b0 $"
0.
#485
b110 &"
1"
b110 _
13
b100 '"
b100 `
b1 R
b1 w
1+
#490
0+
#495
b10000 E
b10000 U
b10000 Y
b10000 j
b10000 z
b10000 ~
b100 e
b100 p
b100 {
b100 @
b100 K
b100 V
b111 _
03
15
b111 &"
0"
1$
b11 k
b11 o
b11 s
b11 F
b11 J
b11 N
b110 `
b110 '"
b11 h
b11 r
b11 ""
b11 C
b11 M
b11 [
b10 R
b10 w
1+
#500
0+
#505
b101 &"
1"
b101 _
13
b111 '"
b111 `
b11 R
b11 w
1+
#510
0+
#515
b100 O
b100 !
b100 2
b100 >
b100 c
b100 t
b101 e
b101 p
b101 {
b101 @
b101 K
b101 V
14
03
1#
0"
b100 k
b100 o
b100 s
b100 F
b100 J
b100 N
b101 `
b101 '"
b100 h
b100 r
b100 ""
b100 C
b100 M
b100 [
b100 R
b100 w
1+
#520
0+
#525
b101 R
b101 w
1+
#530
0+
#535
b110 R
b110 w
1+
#540
0+
#545
b111 R
b111 w
1+
#550
0+
#555
b1000 R
b1000 w
1+
#560
0+
#565
b1001 R
b1001 w
1+
#570
0+
#575
b0 _
b0 &"
b1010 R
09
b1010 w
0(
1+
#580
0+
#585
b0 w
b0 R
1'
18
b0 '"
b0 `
1+
#590
1A
1f
b10 _
b10 &"
0+
b1 ,
b1 0
b1 =
b1 P
b1 ]
b1 b
b1 u
b1 $"
1.
b101 /
#595
b11 _
1;
1:
08
b11 &"
1*
1)
0'
b10 `
b10 '"
1+
#600
0+
#605
b0 E
b0 U
b0 Y
b0 j
b0 z
b0 ~
b101 i
b101 }
b101 !"
b101 D
b101 X
b101 Z
b100 _
0;
0:
04
05
b100 &"
0*
0)
0#
0$
b11 '"
b101 d
b101 q
b101 |
b11 `
b101 ?
b101 L
b101 W
19
1(
1+
#610
0A
0f
0+
b0 ,
b0 0
b0 =
b0 P
b0 ]
b0 b
b0 u
b0 $"
0.
#615
b110 _
13
b110 &"
1"
b100 `
b100 '"
b1 R
b1 w
1+
#620
0+
#625
b101 @
b101 K
b101 V
b101 e
b101 p
b101 {
b10000 j
b10000 z
b10000 ~
b10000 E
b10000 U
b10000 Y
b100 F
b100 J
b100 N
b100 k
b100 o
b100 s
b111 &"
0"
1$
b111 _
03
15
b100 C
b100 M
b100 [
b100 h
b100 r
b100 ""
b110 '"
b110 `
b10 R
b10 w
1+
#630
0+
#635
b101 _
13
b101 &"
1"
b111 `
b111 '"
b11 R
b11 w
1+
#640
0+
#645
b101 O
b101 !
b101 2
b101 >
b101 c
b101 t
1#
0"
14
03
b101 C
b101 M
b101 [
b101 h
b101 r
b101 ""
b101 '"
b101 `
b100 R
b100 w
1+
#650
0+
#655
b101 R
b101 w
1+
#660
0+
#665
b110 R
b110 w
1+
#670
0+
#675
b111 R
b111 w
1+
#680
0+
#685
b1000 R
b1000 w
1+
#690
0+
#695
b1001 R
b1001 w
1+
#700
0+
#705
b0 _
b0 &"
b1010 R
09
b1010 w
0(
1+
#710
0+
#715
b0 R
b0 w
18
1'
b0 `
b0 '"
1+
#720
1A
1f
b10 _
b10 &"
0+
b1 ,
b1 0
b1 =
b1 P
b1 ]
b1 b
b1 u
b1 $"
1.
b110 /
#725
b11 &"
1*
1)
0'
b11 _
1;
1:
08
b10 '"
b10 `
1+
#730
0+
#735
b110 D
b110 X
b110 Z
b110 i
b110 }
b110 !"
b110 @
b110 K
b110 V
b110 e
b110 p
b110 {
b101 F
b101 J
b101 N
b0 E
b0 U
b0 Y
b101 k
b101 o
b101 s
b0 j
b0 z
b0 ~
b100 _
0;
0:
04
05
b100 &"
0*
0)
0#
0$
b110 ?
b110 L
b110 W
b11 `
b110 d
b110 q
b110 |
b11 '"
19
1(
1+
#740
0A
0f
0+
b0 ,
b0 0
b0 =
b0 P
b0 ]
b0 b
b0 u
b0 $"
0.
#745
b110 &"
1"
b110 _
13
b100 '"
b100 `
b1 R
b1 w
1+
#750
0+
#755
b10000 E
b10000 U
b10000 Y
b10000 j
b10000 z
b10000 ~
b110 e
b110 p
b110 {
b110 @
b110 K
b110 V
b111 _
03
15
b111 &"
0"
1$
b101 k
b101 o
b101 s
b101 F
b101 J
b101 N
b110 `
b110 '"
b101 h
b101 r
b101 ""
b101 C
b101 M
b101 [
b10 R
b10 w
1+
#760
0+
#765
b101 &"
1"
b101 _
13
b111 '"
b111 `
b11 R
b11 w
1+
#770
0+
#775
b110 O
b110 !
b110 2
b110 >
b110 c
b110 t
b111 e
b111 p
b111 {
b111 @
b111 K
b111 V
14
03
1#
0"
b110 k
b110 o
b110 s
b110 F
b110 J
b110 N
b101 `
b101 '"
b110 h
b110 r
b110 ""
b110 C
b110 M
b110 [
b100 R
b100 w
1+
#780
0+
#785
b101 R
b101 w
1+
#790
0+
#795
b110 R
b110 w
1+
#800
0+
#805
b111 R
b111 w
1+
#810
0+
#815
b1000 R
b1000 w
1+
#820
0+
#825
b1001 R
b1001 w
1+
#830
0+
#835
b0 _
b0 &"
b1010 R
09
b1010 w
0(
1+
#840
0+
#845
b0 w
b0 R
1'
18
b0 '"
b0 `
1+
#850
1A
1f
b10 _
b10 &"
0+
b1 ,
b1 0
b1 =
b1 P
b1 ]
b1 b
b1 u
b1 $"
1.
b111 /
#855
b11 _
1;
1:
08
b11 &"
1*
1)
0'
b10 `
b10 '"
1+
#860
0+
#865
b0 E
b0 U
b0 Y
b0 j
b0 z
b0 ~
b111 i
b111 }
b111 !"
b111 D
b111 X
b111 Z
b100 _
0;
0:
04
05
b100 &"
0*
0)
0#
0$
b11 '"
b111 d
b111 q
b111 |
b11 `
b111 ?
b111 L
b111 W
19
1(
1+
#870
0A
0f
0+
b0 ,
b0 0
b0 =
b0 P
b0 ]
b0 b
b0 u
b0 $"
0.
#875
b110 _
13
b110 &"
1"
b100 `
b100 '"
b1 R
b1 w
1+
#880
0+
#885
b111 @
b111 K
b111 V
b111 e
b111 p
b111 {
b10000 j
b10000 z
b10000 ~
b10000 E
b10000 U
b10000 Y
b110 F
b110 J
b110 N
b110 k
b110 o
b110 s
b111 &"
0"
1$
b111 _
03
15
b110 C
b110 M
b110 [
b110 h
b110 r
b110 ""
b110 '"
b110 `
b10 R
b10 w
1+
#890
0+
#895
b101 _
13
b101 &"
1"
b111 `
b111 '"
b11 R
b11 w
1+
#900
0+
#905
b111 O
b111 !
b111 2
b111 >
b111 c
b111 t
1#
0"
14
03
b111 C
b111 M
b111 [
b111 h
b111 r
b111 ""
b101 '"
b101 `
b100 R
b100 w
1+
#910
0+
#915
b101 R
b101 w
1+
#920
0+
#925
b110 R
b110 w
1+
#930
0+
#935
b111 R
b111 w
1+
#940
0+
#945
b1000 R
b1000 w
1+
#950
0+
#955
b1001 R
b1001 w
1+
#960
0+
#965
b0 _
b0 &"
b1010 R
09
b1010 w
0(
1+
#970
0+
#975
b0 R
b0 w
18
1'
b0 `
b0 '"
1+
#980
1A
1f
b10 _
b10 &"
0+
b1 ,
b1 0
b1 =
b1 P
b1 ]
b1 b
b1 u
b1 $"
1.
b1000 /
#985
b11 &"
1*
1)
0'
b11 _
1;
1:
08
b10 '"
b10 `
1+
#990
0+
#995
b1000 D
b1000 X
b1000 Z
b1000 i
b1000 }
b1000 !"
b1000 @
b1000 K
b1000 V
b1000 e
b1000 p
b1000 {
b111 F
b111 J
b111 N
b0 E
b0 U
b0 Y
b111 k
b111 o
b111 s
b0 j
b0 z
b0 ~
b100 _
0;
0:
04
05
b100 &"
0*
0)
0#
0$
b1000 ?
b1000 L
b1000 W
b11 `
b1000 d
b1000 q
b1000 |
b11 '"
19
1(
1+
#1000
0A
0f
0+
b0 ,
b0 0
b0 =
b0 P
b0 ]
b0 b
b0 u
b0 $"
0.
#1005
b110 &"
1"
b110 _
13
b100 '"
b100 `
b1 R
b1 w
1+
#1010
0+
#1015
b10000 E
b10000 U
b10000 Y
b10000 j
b10000 z
b10000 ~
b1000 e
b1000 p
b1000 {
b1000 @
b1000 K
b1000 V
b111 _
03
15
b111 &"
0"
1$
b111 k
b111 o
b111 s
b111 F
b111 J
b111 N
b110 `
b110 '"
b111 h
b111 r
b111 ""
b111 C
b111 M
b111 [
b10 R
b10 w
1+
#1020
0+
#1025
b101 &"
1"
b101 _
13
b111 '"
b111 `
b11 R
b11 w
1+
#1030
0+
#1035
b1000 O
b1000 !
b1000 2
b1000 >
b1000 c
b1000 t
b1001 e
b1001 p
b1001 {
b1001 @
b1001 K
b1001 V
14
03
1#
0"
b1000 k
b1000 o
b1000 s
b1000 F
b1000 J
b1000 N
b101 `
b101 '"
b1000 h
b1000 r
b1000 ""
b1000 C
b1000 M
b1000 [
b100 R
b100 w
1+
#1040
0+
#1045
b101 R
b101 w
1+
#1050
0+
#1055
b110 R
b110 w
1+
#1060
0+
#1065
b111 R
b111 w
1+
#1070
0+
#1075
b1000 R
b1000 w
1+
#1080
0+
#1085
b1001 R
b1001 w
1+
#1090
0+
#1095
b0 _
b0 &"
b1010 R
09
b1010 w
0(
1+
#1100
0+
#1105
b0 w
b0 R
1'
18
b0 '"
b0 `
1+
#1110
1A
1f
b10 _
b10 &"
0+
b1 ,
b1 0
b1 =
b1 P
b1 ]
b1 b
b1 u
b1 $"
1.
b1001 /
#1115
b11 _
1;
1:
08
b11 &"
1*
1)
0'
b10 `
b10 '"
1+
#1120
0+
#1125
b0 E
b0 U
b0 Y
b0 j
b0 z
b0 ~
b1001 i
b1001 }
b1001 !"
b1001 D
b1001 X
b1001 Z
b100 _
0;
0:
04
05
b100 &"
0*
0)
0#
0$
b11 '"
b1001 d
b1001 q
b1001 |
b11 `
b1001 ?
b1001 L
b1001 W
19
1(
1+
#1130
0A
0f
0+
b0 ,
b0 0
b0 =
b0 P
b0 ]
b0 b
b0 u
b0 $"
0.
#1135
b110 _
13
b110 &"
1"
b100 `
b100 '"
b1 R
b1 w
1+
#1140
0+
#1145
b1001 @
b1001 K
b1001 V
b1001 e
b1001 p
b1001 {
b10000 j
b10000 z
b10000 ~
b10000 E
b10000 U
b10000 Y
b1000 F
b1000 J
b1000 N
b1000 k
b1000 o
b1000 s
b111 &"
0"
1$
b111 _
03
15
b1000 C
b1000 M
b1000 [
b1000 h
b1000 r
b1000 ""
b110 '"
b110 `
b10 R
b10 w
1+
#1150
0+
#1155
b101 _
13
b101 &"
1"
b111 `
b111 '"
b11 R
b11 w
1+
#1160
0+
#1165
b1001 O
b1001 !
b1001 2
b1001 >
b1001 c
b1001 t
1#
0"
14
03
b1001 C
b1001 M
b1001 [
b1001 h
b1001 r
b1001 ""
b101 '"
b101 `
b100 R
b100 w
1+
#1170
0+
#1175
b101 R
b101 w
1+
#1180
0+
#1185
b110 R
b110 w
1+
#1190
0+
#1195
b111 R
b111 w
1+
#1200
0+
#1205
b1000 R
b1000 w
1+
#1210
0+
#1215
b1001 R
b1001 w
1+
#1220
0+
#1225
b0 _
b0 &"
b1010 R
09
b1010 w
0(
1+
#1230
0+
#1235
b0 R
b0 w
18
1'
b0 `
b0 '"
1+
#1240
1A
1f
b10 _
b10 &"
0+
b1 ,
b1 0
b1 =
b1 P
b1 ]
b1 b
b1 u
b1 $"
1.
b1010 /
#1245
b11 &"
1*
1)
0'
b11 _
1;
1:
08
b10 '"
b10 `
1+
#1250
0+
#1255
b1010 D
b1010 X
b1010 Z
b1010 i
b1010 }
b1010 !"
b1010 @
b1010 K
b1010 V
b1010 e
b1010 p
b1010 {
b1001 F
b1001 J
b1001 N
b0 E
b0 U
b0 Y
b1001 k
b1001 o
b1001 s
b0 j
b0 z
b0 ~
b100 _
0;
0:
04
05
b100 &"
0*
0)
0#
0$
b1010 ?
b1010 L
b1010 W
b11 `
b1010 d
b1010 q
b1010 |
b11 '"
19
1(
1+
#1260
0A
0f
0+
b0 ,
b0 0
b0 =
b0 P
b0 ]
b0 b
b0 u
b0 $"
0.
#1265
b110 &"
1"
b110 _
13
b100 '"
b100 `
b1 R
b1 w
1+
#1270
0+
#1275
b10000 E
b10000 U
b10000 Y
b10000 j
b10000 z
b10000 ~
b1010 e
b1010 p
b1010 {
b1010 @
b1010 K
b1010 V
b111 _
03
15
b111 &"
0"
1$
b1001 k
b1001 o
b1001 s
b1001 F
b1001 J
b1001 N
b110 `
b110 '"
b1001 h
b1001 r
b1001 ""
b1001 C
b1001 M
b1001 [
b10 R
b10 w
1+
#1280
0+
#1285
b101 &"
1"
b101 _
13
b111 '"
b111 `
b11 R
b11 w
1+
#1290
0+
#1295
b1010 O
b1010 !
b1010 2
b1010 >
b1010 c
b1010 t
b1011 e
b1011 p
b1011 {
b1011 @
b1011 K
b1011 V
14
03
1#
0"
b1010 k
b1010 o
b1010 s
b1010 F
b1010 J
b1010 N
b101 `
b101 '"
b1010 h
b1010 r
b1010 ""
b1010 C
b1010 M
b1010 [
b100 R
b100 w
1+
#1300
0+
#1305
b101 R
b101 w
1+
#1310
0+
#1315
b110 R
b110 w
1+
#1320
0+
#1325
b111 R
b111 w
1+
#1330
0+
#1335
b1000 R
b1000 w
1+
#1340
0+
#1345
b1001 R
b1001 w
1+
#1350
0+
#1355
b0 _
b0 &"
b1010 R
09
b1010 w
0(
1+
#1360
0+
#1365
b0 w
b0 R
1'
18
b0 '"
b0 `
1+
#1370
1A
1f
b10 _
b10 &"
0+
b1 ,
b1 0
b1 =
b1 P
b1 ]
b1 b
b1 u
b1 $"
1.
b1011 /
#1375
b11 _
1;
1:
08
b11 &"
1*
1)
0'
b10 `
b10 '"
1+
#1380
0+
#1385
b0 E
b0 U
b0 Y
b0 j
b0 z
b0 ~
b1011 i
b1011 }
b1011 !"
b1011 D
b1011 X
b1011 Z
b100 _
0;
0:
04
05
b100 &"
0*
0)
0#
0$
b11 '"
b1011 d
b1011 q
b1011 |
b11 `
b1011 ?
b1011 L
b1011 W
19
1(
1+
#1390
0A
0f
0+
b0 ,
b0 0
b0 =
b0 P
b0 ]
b0 b
b0 u
b0 $"
0.
#1395
b110 _
13
b110 &"
1"
b100 `
b100 '"
b1 R
b1 w
1+
#1400
0+
#1405
b1011 @
b1011 K
b1011 V
b1011 e
b1011 p
b1011 {
b10000 j
b10000 z
b10000 ~
b10000 E
b10000 U
b10000 Y
b1010 F
b1010 J
b1010 N
b1010 k
b1010 o
b1010 s
b111 &"
0"
1$
b111 _
03
15
b1010 C
b1010 M
b1010 [
b1010 h
b1010 r
b1010 ""
b110 '"
b110 `
b10 R
b10 w
1+
#1410
0+
#1415
b101 _
13
b101 &"
1"
b111 `
b111 '"
b11 R
b11 w
1+
#1420
0+
